{
"Activate": "Attiva",
"Author": "Autore",
"AreYouSure": "Sei sicuro?",
"and": "e",
"Between": "Tra",
"Cancel": "Annulla",
"Character": "Personaggio",
"Configure": "Configura",
"Close": "Chiudi",
"Degrees": "Gradi",
"Default": "Predefinito",
"Delete": "Elimina",
"Description": "Descrizione",
"Distance": "Distanza",
"Documentation": "Documentazione",
"Duplicate": "Duplica",
"Error": "Errore",
"GridUnits": "Unità Griglia",
"Install": "Installazione",
"Elevation": "Elevazione",
"Foundry Virtual Tabletop": "Foundry Virtual Tabletop",
"File Path": "Percorso File",
"Height": "Altezza",
"Hidden": "Nascosto",
"Name": " Nome",
"No": "No",
"Notes": "Note",
"Preload": "Precaricamento",
"Token": "Token",
"Minimum": "Minimo",
"Maximum": "Massimo",
"Path": "Percorso",
"Packs": "Pacchetto",
"Permissions": "Permessi",
"Pixels": "Pixels",
"Ratio": "Rapporto",
"Result": "Risultato",
"Rotation": "Rotazione",
"Save Changes": "Salva Le Modifiche",
"Scale": "Scala",
"Seconds": "Secondi",
"Sheet": "Scheda",
"System": "Sistema",
"Software": "Software",
"Type": "Tipo",
"Uninstall": "Disinstalla",
"Update": "Aggiorna",
"URL": "URL",
"Warning": "Attenzione",
"Width": "Larghezza",
"XCoord": "Coordinate X",
"YCoord": "Coordinate Y",
"Yes": "Si",

"ACTOR.Title": "Elenco Personaggi",
"ACTOR.Create": "Nuovo PG/PNG",
"ACTOR.Search": "Ricerca Personaggi",

"APP.NavigateBackConfirm": "Sei sicuro di voler uscire da Foundry Virtual Tabletop?",

"CHAT.Clear": "Pulisci Chat",
"CHAT.Export": "Esporta Chat",
"CHAT.FlushTitle": "Invia Chat",
"CHAT.FlushWarning": "Tutti i messaggi della chat verranno eliminati definitivamente.",
"CHAT.InvalidCommand": "{command} non è un comando chat valido.",
"CHAT.Title": "Chat",
"CHAT.To": "A",
"CHAT.PopoutMessage": "Mostra Messaggio",
"CHAT.RevealMessage": "Rivela a tutti",
"CHAT.ConcealMessage": "Nascondi",
"CHAT.RollBlind": "Tiro Nascosto (DM)",
"CHAT.RollDefault": "Modalità Predefinita Tiro",
"CHAT.RollPublic": "Tiro Pubblico",
"CHAT.RollPrivate": "Tiro Privato (DM)",
"CHAT.RollSelf": "Tiro Personale",
"CHAT.RollTables": "Tabelle",
"CHAT.PrivateRollContent": "{user} ha tirato dei dadi privatamente",

"COMBAT.Begin": "Inizia Combattimento",
"COMBAT.Create": "Nuovo Incontro",
"COMBAT.Delete": "Elimina Incontro",
"COMBAT.Encounter": "Incontro",
"COMBAT.EncounterPrevious": "Attiva Incontro Precedente",
"COMBAT.EncounterNext": "Attiva Incontro Successivo",
"COMBAT.End": "Termina Combattimento",
"COMBAT.InitiativeRoll": "Tiro Per l'Iniziativa",
"COMBAT.InitiativeReset": "Ripristina Iniziativa",
"COMBAT.EndTitle": "Terminare Incontro di Combattimento?",
"COMBAT.EndConfirmation": "Terminare l'incontro di combattimento corrente e azzerare l'indicatore dei turni?",
"COMBAT.None": "Nessun Incontro",
"COMBAT.NoneActive": "Non ci sono incontri attivi nella scena attualmente visualizzata.",
"COMBAT.NoneRemaining": "In questo incontro non son rimasti combattenti non sconfitti.",
"COMBAT.NotStarted": "Non Iniziato",
"COMBAT.Resource": "Risorsa Tracciata",
"COMBAT.ResourceHint": "Scegli un attributo da tracciare per ogni combattente.",
"COMBAT.Round": "Round",
"COMBAT.Rounds": "Rounds",
"COMBAT.RoundPrev": "Round Precedente",
"COMBAT.RoundNext": "Round Successivo",
"COMBAT.RollNPC": "Tiro Iniziativa PNG",
"COMBAT.RollAll": "Tiro Iniziativa per tutti",
"COMBAT.RollsInitiative": "{name} tira per l'iniziativa!",
"COMBAT.Settings": "Impostazioni Combat Tracker",
"COMBAT.SettingsSave": "Salva Impostazioni Tracker",
"COMBAT.SkipDefeated": "Salta gli sconfitti?",
"COMBAT.SkipDefeatedHint": "Bypassare automaticamente i combattenti contrassegnati come sconfitti?",
"COMBAT.ToggleVis": "Attiva/disattiva visibilità",
"COMBAT.ToggleDead": "Contrassegna Sconfitti",
"COMBAT.Turn": "Turno",
"COMBAT.Turns": "Turni",
"COMBAT.TurnEnd": "Fine Turno",
"COMBAT.TurnNext": "Turno Successivo",
"COMBAT.TurnPrev": "Turno Precedente",
"COMBAT.UnknownCombatant": "Combattente Sconosciuto",

"COMBAT.CombatantActor": "Personaggio Rappresentato",
"COMBAT.CombatantCreate": "Crea Combattente",
"COMBAT.CombatantDefeated": "Sconfitto",
"COMBAT.CombatantHidden": "Nascosto",
"COMBAT.CombatantImage": "Miniatura Immagine",
"COMBAT.CombatantInitiative": "Valore Iniziativa",
"COMBAT.CombatantStatus": "Stato Combattente",
"COMBAT.CombatantUpdate": "Aggiorna Combattente",
"COMBAT.CombatantName": "Nome Visualizzato",
"COMBAT.CombatantRemove": "Rimuovi Combattente",
"COMBAT.CombatantClear": "Azzera Iniziativa",
"COMBAT.CombatantReroll": "Ri-tira Iniziativa",
"COMBAT.CombatantToken": "Token Rappresentato",

"COMPENDIUM.Name": "Nome Compendium",
"COMPENDIUM.Create": "Nuovo Compendium",
"COMPENDIUM.CreateHint": "Crea un nuovo Compendium nell'attuale Mondo Di Gioco.",
"COMPENDIUM.Delete": "Elimina Compendium",
"COMPENDIUM.DeleteWarning": "Questo Compendium verrà eliminato definitivamente e non potrà essere recuperato.",
"COMPENDIUM.DeleteEntry": "Elimina Voce",
"COMPENDIUM.DeleteEntryWarning": "Questa voce del Compendium e i suoi dati verranno eliminati definitivamente.",
"COMPENDIUM.Duplicate": "Duplica Compendium",
"COMPENDIUM.DuplicateTitle": "Nuovo Titolo del Compendium",
"COMPENDIUM.DuplicateHint": "E’ possibile duplicare questo compendio nel tuo mondo per averne una copia locale e modificarne in modo sicuro il suo contenuto.",
"COMPENDIUM.ErrorRequireTitle": "Devi fornire un titolo per creare un Compendium..",
"COMPENDIUM.ImportAll": "Importa Tutto il Contenuto",
"COMPENDIUM.ImportAllHint": "Tutto il contenuto di questo Compendium verrà importato nel tuo mondo in una cartella che portai poi rinominare.",
"COMPENDIUM.ImportAllStart": "Importazione di {number} {type} voci nella cartella {folder}. Per favore sii paziente.",
"COMPENDIUM.ImportAllFinish": "{nuber} {type} voci importate correttamente nella cartella {folder}.",
"COMPENDIUM.ImportEntry": "Importa Voce",
"COMPENDIUM.Type": "Tipo Documento",
"COMPENDIUM.TypeHint": "Ogni Compendium contiene un tipo specifico di Documento.",
"COMPENDIUM.ToggleVisibility": "abilita/disabilita visibilità",
"COMPENDIUM.ToggleLocked": "abilita/disabilita blocco modifica",
"COMPENDIUM.ToggleLockedWarning": "Stai tentando di sbloccare un compendium che non appartiene a questo mondo per modificarlo. Eventuali modifiche apportate a questo compendium potrebbero andare perse se il sistema o il modulo proprietario lo aggiorna. Potresti invece duplicare il compendium nel tuo mondo. Desideri procedere?",

"CONTROLS.Title": "Elenco Controlli di Gioco",
"CONTROLS.Instructions": "Questo elenco descrive i comandi comuni della tastiera e del mouse utilizzati per controllare vari aspetti dell'ambiente Foundry Virtual Tabletop. Alcuni controlli sono disponibili solo per l'utente Game Master, evidenziati in viola chiaro.",
"CONTROLS.GroupToken": "Controlli Token",
"CONTROLS.BasicSelect": "Seleziona Tokens",
"CONTROLS.TargetSelect": "Seleziona Obiettivi",
"CONTROLS.BasicMeasure": "Misura Distanza",
"CONTROLS.GroupMeasure": "Controlli di Misurazione",
"CONTROLS.MeasureCircle": "Modello Cerchio",
"CONTROLS.MeasureCone": "Modello Cono",
"CONTROLS.MeasureRect": "Modello Rettangolo",
"CONTROLS.MeasureRay": "Modello Raggio",
"CONTROLS.MeasureClear": "Cancella Modelli",
"CONTROLS.GroupTile": "Controlli Oggetto",
"CONTROLS.TileSelect": "Seleziona Oggetti",
"CONTROLS.TilePlace": "Posiziona Oggetto",
"CONTROLS.TileForeground": "Livello in Primo Piano",
"CONTROLS.TileBrowser": "Tile Browser",
"CONTROLS.GroupDrawing": "Strumenti di Disegno",
"CONTROLS.DrawingSelect": "Seleziona Disegno",
"CONTROLS.DrawingRect": "Rettangolo",
"CONTROLS.DrawingEllipse": "Ellisse",
"CONTROLS.DrawingPoly": "Poligono",
"CONTROLS.DrawingFree": "Mano Libera",
"CONTROLS.DrawingText": "Testo",
"CONTROLS.DrawingClear": "Cancella Disegni",
"CONTROLS.DrawingConfig": "Configura Disegni",
"CONTROLS.GroupWall": "Controlli Mura",
"CONTROLS.WallDraw": "Disegna Mura",
"CONTROLS.WallInvisible": "Mura Invisibili",
"CONTROLS.WallTerrain": "Mura Terreno",
"CONTROLS.WallEthereal": "Mura Eteree",
"CONTROLS.WallDoors": "Posiziona Porta",
"CONTROLS.WallSecret": "Porta Segreta",
"CONTROLS.WallSelect": "Selezione Rettangolare Mura",
"CONTROLS.WallSnap": "Forza Allinea a Griglia",
"CONTROLS.WallClone": "Clona Porte",
"CONTROLS.WallClear": "Cancella Porte",
"CONTROLS.GroupLighting": "Controlli Illuminazione",
"CONTROLS.LightDraw": "Posiziona Sorgente di Luce",
"CONTROLS.LightClear": "Rimuovi Luci",
"CONTROLS.LightReset": "Azzera Nebbia di Guerra",
"CONTROLS.LightDay": "Transizione alla luce del giorno",
"CONTROLS.LightNight": "Transizione all'oscurità",
"CONTROLS.FOWResetTitle": "Azzerare l'esplorazione effettuata mediante Nebbia di Guerra?",
"CONTROLS.FOWResetDesc": "Verrà azzerata la Nebbia di Guerra per questa Scene per tutti i giocatori.",
"CONTROLS.GroupSound": "Controlli Suoni Ambientali",
"CONTROLS.SoundDraw": "Posiziona Suono Ambientale",
"CONTROLS.SoundPreview": "Anteprima Suoni Ambientali",
"CONTROLS.SoundClear": "Rimuovi Suoni",
"CONTROLS.GroupNotes": "Annotazioni",
"CONTROLS.NoteSelect": "Seleziona Annotazione",
"CONTROLS.NoteToggle": "Attiva/Disattiva Visualizzazione Annotazioni",
"CONTROLS.NoteClear": "Rimuovi Annotazione",
"CONTROLS.ClearAll": "Cancella tutti gli Oggetti",
"CONTROLS.ClearAllHint": "Eliminare definitivamente tutti gli oggetti {type} da questa scena?",
"CONTROLS.HeaderGame": "Controlli Di Gioco Generali",
"CONTROLS.HeaderGameNotes": "I controlli seguenti sono generalmente applicabili nei vari aspetti delle funzionalità di Foundry.",
"CONTROLS.HeaderCanvas": "Controlli Livello Area di Gioco",
"CONTROLS.HeaderCanvasNotes": "Questi controlli sono applicabili quando si interagisce con uno specifico livello dell'Area di Gioco",
"CONTROLS.HeaderObjects": "Controlli Oggetti Posizionabili",
"CONTROLS.HeaderObjectsNotes": "Questi controlli sono applicabili quando si interagisce con un oggetto posizionato nell'Area di Gioco.",
"CONTROLS.HeaderSpecial": "Controlli Specializzati",
"CONTROLS.HeaderSpecialNotes": "Questi controlli sono applicabili solo durante specifiche interazioni.",
"CONTROLS.MouseControls": "Controlli Mouse",
"CONTROLS.KeyboardControls": "Controlli Tastiera",
"CONTROLS.GameMenu": "Attiva/Disattiva il Menu Principale",
"CONTROLS.GameClose": "Chiudi le Finestre Aperte",
"CONTROLS.GamePause": "Attiva/Disattiva la Pausa di Gioco",
"CONTROLS.CanvasCancel": "Annulla la Mossa in Sospeso",
"CONTROLS.CanvasMove": "Muovi gli Oggetti",
"CONTROLS.CanvasPan": "Ruota Area di Gioco",
"CONTROLS.CanvasSelect": "Seleziona gli Oggetti",
"CONTROLS.CanvasSelectMany": "Aggiungi o Rimuovi gli Oggeti Selezionati",
"CONTROLS.CanvasLeftDrag": "Usa lo Strumento Attivo",
"CONTROLS.CanvasSelectCancel": "Annulla l'Operazione di Trascinamento",
"CONTROLS.CanvasZoom": "Zoom sull'Area di Gioco",
"CONTROLS.LeftClick": "Click Sinistro",
"CONTROLS.LeftClick2": "Doppio Click Sinistro",
"CONTROLS.LeftDrag": "Click Sinistro e Trascina",
"CONTROLS.Double": "Doppio",
"CONTROLS.RightClick": "Click Destro",
"CONTROLS.Drag": "Trascina",
"CONTROLS.Drop": "Rilascia",
"CONTROLS.During": "durante",
"CONTROLS.KeyHighlight": "Evidenzia gli Oggetti sull'Area di Gioco",
"CONTROLS.KeyPan": "Ruota Area di Gioco",
"CONTROLS.KeyZoomIn": "Ingrandisci",
"CONTROLS.KeyZoomOut": "Rimpicciolisci",
"CONTROLS.KeyCycle": "Cicla sui Token o Annulla Vista",
"CONTROLS.KeyMove": "Movimento Tastiera (Tokens o Tiles)",
"CONTROLS.KeyMoveDiag": "Movimento Diagonale",
"CONTROLS.KeyMoveFace": "Direzione Frontale",
"CONTROLS.KeyDelete": "Elimina gli Oggetti Selezionati",
"CONTROLS.KeyCopy": "Copia gli Elementi sull'Area di Gioco",
"CONTROLS.KeyPaste": "Incolla gli Elementi sull'Area di Gioco",
"CONTROLS.KeyUndo": "Annulla Operazione sull'Area di Gioco",
"CONTROLS.KeyHotbar": "Attiva Hotbar",
"CONTROLS.RulerTitle": "Misurazioni Righello",
"CONTROLS.RulerMeasure": "Misura Distanza con il Righello",
"CONTROLS.RulerWaypoint": "Posiziona Punto di Misurazione",
"CONTROLS.RulerMove": "Sposta il Token sul Percorso Misurato",
"CONTROLS.RulerWhile": "mentre si misura da un Token",
"CONTROLS.ObjectSheet": "Apri la Scheda dell'Oggetto Referenziato",
"CONTROLS.ObjectHUD": "Visualizza l'HUD dell'Oggetto (Se Applicabile)",
"CONTROLS.ObjectConfig": "Apri la Scheda di Configurazione dell'Oggetto",
"CONTROLS.ObjectDrag": "Sposta gli Oggetti Controllati",
"CONTROLS.ObjectDragCancel": "Annulla Trascinamento",
"CONTROLS.ObjectRotateSlow": "Ruota Oggetto (Lento)",
"CONTROLS.ObjectRotateFast": "Ruota Oggetto (Veloce)",
"CONTROLS.ObjectNoSnap": "Bypassa Allinea-Alla-Griglia",
"CONTROLS.MouseWheel": "Rotella del Mouse",
"CONTROLS.DragDrop": "Trascina e Rilascia",
"CONTROLS.TokenHeader": "Controlli Token",
"CONTROLS.TokenPlaceHidden": "posiziona Token Nascosto",
"CONTROLS.TokenTarget": "Imposta Token (non in controllo) come Obiettivo",
"CONTROLS.WallHeader": "Controlli Livello Pareti",
"CONTROLS.WallChain": "Concatena Posizionamento Pareti",
"CONTROLS.WallSelectChain": "Seleziona Segmenti Concatenati",
"CONTROLS.DrawingHeader": "Controlli Strumenti di Disegno",
"CONTROLS.DrawingTextConfirm": "Conferma Testo Inserito",
"CONTROLS.DrawingTextCancel": "Annulla Testo Inserito",

"DICE.ErrorNonNumeric": "La formula del tiro di dado {formula} non ha prodotto un risultato numerico.",
"DICE.WarnMissingData": "L'attributo {match} non era presente nei dati del tiro forniti.",

"DOCUMENT.Create": "Crea Nuovo {type}",
"DOCUMENT.Delete": "Elimina {type}",
"DOCUMENT.New": "Nuovo {type}",
"DOCUMENT.Update": "Aggiorna {type}",

"DOCUMENT.ActiveEffect": "Effetto Attivo",
"DOCUMENT.Actor": "Personaggio",
"DOCUMENT.AmbientLight": "Luce Ambientale",
"DOCUMENT.AmbientSound": "Suono Ambientale",
"DOCUMENT.ChatMessage": "Messaggio Chat",
"DOCUMENT.Combat": "Incontro di Combattimento",
"DOCUMENT.Combatant": "Combattente",
"DOCUMENT.Drawing": "Disegno",
"DOCUMENT.Folder": "Cartella",
"DOCUMENT.Item": "Oggetto",
"DOCUMENT.JournalEntry": "Voce Diario",
"DOCUMENT.Macro": "Macro",
"DOCUMENT.MeasuredTemplate": "Modello di Misurazione",
"DOCUMENT.Note": "Nota",
"DOCUMENT.Playlist": "Playlist",
"DOCUMENT.PlaylistSound": "Suono Playlist",
"DOCUMENT.Scene": "Scena",
"DOCUMENT.Setting": "Impostazione",
"DOCUMENT.RollTable": "Tabella",
"DOCUMENT.TableResult": "Risultato Tabella",
"DOCUMENT.Tile": "Tile",
"DOCUMENT.Token": "Token",
"DOCUMENT.User": "Utente",
"DOCUMENT.Wall": "Parete",

"DRAWING.ConfigTitle": "Configurazione del disegno",
"DRAWING.ConfigDefaultTitle": "Configurazione predefinita del disegno",
"DRAWING.SubmitDefault": "Imposta come Predefinite",
"DRAWING.SubmitCreate": "Crea Disegno",
"DRAWING.SubmitUpdate": "Aggiorna Disegno",
"DRAWING.SubmitReset": "Ripristina Impost. Predefinite",
"DRAWING.TabPosition": "Posizione",
"DRAWING.TabLines": "Linea",
"DRAWING.TabFill": "Riempimento",
"DRAWING.TabText": "Testo",
"DRAWING.NotePosition": "Imposta la posizione e la visibilità del disegno.",
"DRAWING.NoteLines": "Imposta la linea di contorno per il disegno.",
"DRAWING.NoteFill": "Imposta le preferenze di riempimento interno per questo disegno.",
"DRAWING.NoteText": "Imposta l'etichetta di testo applicata a questo disegno (se presente).",
"DRAWING.Author": "Autore",
"DRAWING.PosX": "coordinate X",
"DRAWING.PosY": "coordinate Y",
"DRAWING.Width": "Larghezza",
"DRAWING.Height": "Altezza",
"DRAWING.Rotation": "Rotazione",
"DRAWING.ZIndex": "Z-Index",
"DRAWING.LineWidth": "Spessore Linea",
"DRAWING.StrokeColor": "Colore Tratto",
"DRAWING.LineOpacity": "Opacità Linea",
"DRAWING.SmoothingFactor": "Fattore Smusso",
"DRAWING.SmoothingFactorHint": "Per il disegno a mano libera, il fattore di smusso controlla la quantità di 'arrotondamento' della spline.",
"DRAWING.FillTypes": "Tipi Riempimento",
"DRAWING.FillTypeNone": "Nessuno",
"DRAWING.FillTypeSolid": "Solido",
"DRAWING.FillTypePattern": "Motivo",
"DRAWING.FillColor": "Colore Riempimento",
"DRAWING.FillOpacity": "Opacità Riempimento",
"DRAWING.FillTexture": "Texture Riempimento",
"DRAWING.TextLabel": "Etichetta Testo",
"DRAWING.FontFamily": "Famiglia Font",
"DRAWING.FontSize": "Dimensione Font",
"DRAWING.TextColor": "Colore Testo",
"DRAWING.TextOpacity": "Opacità Testo",

"EFFECT.MODE_CUSTOM": "Personalizzato",
"EFFECT.MODE_MULTIPLY": "Moltiplica",
"EFFECT.MODE_ADD": "Aggiungi",
"EFFECT.MODE_DOWNGRADE": "Decrementa",
"EFFECT.MODE_UPGRADE": "Incrementa",
"EFFECT.MODE_OVERRIDE": "Sovrascrivi",
"EFFECT.ConfigTitle": "Configura effetto attivo",
"EFFECT.TabDetails": "Dettagli",
"EFFECT.TabDuration": "Durata",
"EFFECT.TabEffects": "Effetti",
"EFFECT.Label": "Etichetta Effetto",
"EFFECT.Icon": "Icona Effetto",
"EFFECT.IconTint": "Colore Icona",
"EFFECT.Disabled": "Disabilita Effetto",
"EFFECT.Origin": "Origine Effetto",
"EFFECT.Transfer": "Trasferisci Effetti all'Attore",
"EFFECT.DurationSecs": "Durata Effetto (Secondi)",
"EFFECT.StartTime": "Tempo Inizio Effetto",
"EFFECT.DurationTurns": "Durata Effetto (Turni)",
"EFFECT.Combat": "Incontro di Combattimento",
"EFFECT.StartTurns": "Inizio Turno Effetto",
"EFFECT.ChangeKey": "Chiave Attributo",
"EFFECT.ChangeMode": "Cambia Modalità",
"EFFECT.ChangeValue": "Valore Effetto",
"EFFECT.Submit": "Invia Modifiche",

"EFFECT.StatusAsleep": "Addormentato",
"EFFECT.StatusDead": "Morto",
"EFFECT.StatusUnconscious": "incosciente",
"EFFECT.StatusStunned": "Stordito",
"EFFECT.StatusProne": "Prono",
"EFFECT.StatusRestrained": "Trattenuto",
"EFFECT.StatusParalysis": "Paralizato",
"EFFECT.StatusFlying": "In Volo",
"EFFECT.StatusBlind": "Cieco",
"EFFECT.StatusDeaf": "Sordo",
"EFFECT.StatusSilenced": "Muto",
"EFFECT.StatusFear": "Spaventato",
"EFFECT.StatusBurning": "In Fiamme",
"EFFECT.StatusFrozen": "Congelato",
"EFFECT.StatusShocked": "Scioccato",
"EFFECT.StatusCorrode": "Corroso",
"EFFECT.StatusBleeding": "Sanguinante",
"EFFECT.StatusDisease": "Infetto",
"EFFECT.StatusPoison": "Avvelenato",
"EFFECT.StatusRadiation": "Radioattivo",
"EFFECT.StatusRegen": "Rigenerazione",
"EFFECT.StatusDegen": "Degenerazione",
"EFFECT.StatusUpgrade": "Potenziato",
"EFFECT.StatusDowngrade": "Indebolito",
"EFFECT.StatusTarget": "Sotto Mira",
"EFFECT.StatusMarked": "Marcato",
"EFFECT.StatusCursed": "Maledetto",
"EFFECT.StatusBlessed": "Benedatto",
"EFFECT.StatusFireShield": "Scudo di fuoco",
"EFFECT.StatusIceShield": "Scudo di Ghiaccio",
"EFFECT.StatusMagicShield": "Scudo Magico",
"EFFECT.StatusHolyShield": "Scudo Benedetto",

"ENTITY.Actor": "Personaggio",
"ENTITY.ChatMessage": "Messaggio Chat",
"ENTITY.Combat": "Incontro di Combattimento",
"ENTITY.Item": "Oggetto",
"ENTITY.Folder": "Cartella",
"ENTITY.JournalEntry": "Voce Diario",
"ENTITY.Macro": "Comando Macro",
"ENTITY.Playlist": "Playlist Audio",
"ENTITY.Scene": "Scena",
"ENTITY.RollTable": "Tabella",
"ENTITY.User": "Utente",
"ENTITY.Create": "Crea nuovo/a {entity}",
"ENTITY.New": "Nuovo/a {entity}",
"ENTITY.CreateNew": "Crea Nuovo/a",

"ERROR.BrowserVersion": "Foundry Virtual Tabletop utilizza moderne funzionalità JavaScript che non sono supportate per versioni di {browser} inferiori a {minimum}. Stai utilizzando {browser} versione {versione}. Aggiorna o utilizza un browser diverso.",
"ERROR.LowResolution": "Foundry Virtual Tabletop richiede una risoluzione minima dello schermo di 1366px per 768px o superiore. La tua risoluzione è attualmente {width}px per {height}px. Con le impostazioni di visualizzazione correnti, molte funzioni del software potrebbero non funzionare correttamente.",
"ERROR.NoWebGL": "Al momento il tuo browser non supporta il rendering WebGL richiesto da Foundry Virtual Tabletop. Assicurati di avere il rendering hardware e WebGL abilitati nel tuo browser.",
"ERROR.BackgroundTextureSize": "Stai utilizzando un’immagine di sfondo della scena con dimensioni {width} px per {height} px. Una o entrambe queste dimensioni superano la dimensione massima dell’immagine di {max} px supportata dal tuo dispositivo.",
"ERROR.InvalidAdminKey": "La chiave di accesso dell'amministratore inserita non è valida. Se hai dimenticato la password configurata, dovrai eliminare manualmente il file <strong> Config / admin.txt </strong> nella cartella dei dati dell'utente. </p>",
"ERROR.TokenCollide": "Il tentativo di movimento del Token è bloccato da almeno una Parete.",
"ERROR.LoadPackages": "La richiesta di connessione al server di Foundry per elencare i pacchetti esistenti non è riuscita. Assicurarsi che l'applicazione consenta connessioni in uscita.",
"ERROR.NoTargetUsersForWhisper": "Non esistono utenti target per questo messaggio sussurrato. Controlla la correttezza oppure prova \"/w [Nome utente]\".",
"ERROR.CantWhisper": "Non sei autorizzato a inviare messaggi di chat sussurrati ad altri giocatori.",


"WARNING.GridConfigNoBG": "Stai utilizzando lo strumento di configurazione della griglia per una scena senza immagine di sfondo. Questa operazione non è raccomandata e può produrre risultati imprevedibili.",
"WARNING.ForegroundDimensionsMismatch": "Le dimensioni dell'immagine del livello di primo piano configurata non corrispondono alle dimensioni dell'immagine del livello di sfondo per questa scena. Il primo piano è stato ridimensionato, il che potrebbe avere risultati indesiderati.",

"EULA.Acknowledge": "Riconoscimenti",
"EULA.Agree": "Accetta",
"EULA.AgreeHint": "Accetto i termini",
"EULA.Decline": "Rifiuta",

"FILES.CreateDirectory": "Crea Cartella",
"FILES.TogglePrivacy": "Attiva/disattiva modalità privata",
"FILES.DisplayMode": "Modalità di visualizzazione",
"FILES.DisplayModeList": "Visualizzazione elenco",
"FILES.DisplayModeTiles": "Visualizzazione tiles",
"FILES.DisplayModeThumbs": "Visualizzazione Miniature",
"FILES.DisplayModeImages": "Visualizzazione Immagini",
"FILES.FilterLabel": "Filtra i risultati",
"FILES.S3Label": "S3 Bucket",
"FILES.Selected": "Selezionato",
"FILES.SelectFile": "Seleziona File",
"FILES.SelectFolder": "Seleziona Cartella",
"FILES.TileSize": "Dimensione griglia Risorse",
"FILES.TileSizeHint": "Specificare le dimensioni della griglia in pixel dell'immagine di origine in modo che vengano ridimensionate automaticamente quando posizionate sulla scena attiva.",
"FILES.NoResults": "Nessun risultato corrispondente trovato in questa posizione.",
"FILES.Upload": "Carica",
"FILES.Search": "Cerca",
"FILES.ErrorTooLarge": "Il file che hai cercato di caricare è troppo grande per essere gestito dal tuo server proxy.",
"FILES.ErrorSomethingWrong": "Si è verificato un problema con la richiesta di caricamento del file.",
"FILES.WarnUploadModules": "Hai caricato dei file in un modulo o in una directory di sistema. Questo è generalmente <strong>non sicuro</strong> perché gli aggiornamenti al sistema o al modulo elimineranno i tuoi file.",
"FILES.TitleFolder": "Esplora Cartelle",
"FILES.TitleImageVideo": "Browser Immagini o Video",
"FILES.TitleImage": "Browser Immagini",
"FILES.TitleVideo": "Browser Video",
"FILES.TitleAudio": "Browser Audio",
"FILES.SourceUser": "Dati Utente",
"FILES.SourceCore": "Dati Principali",
"FILES.SourceS3": "Amazon S3",
"FILES.BrowseTooltip": "Sfoglia Files",

"GAME.Paused": "Gioco In Pausa",
"GAME.PausedWarning": "Non puoi eseguire questa azione mentre il gioco è in pausa",

"INVITATIONS.Copied": "Link di invito al gioco copiato negli appunti",
"INVITATIONS.Instructions": "Condividi i link qui sotto con gli utenti che desideri partecipino al gioco. Usa il link contrassegnato come 'Rete Locale' per gli utenti all'interno della tua rete, usa invece il link 'Internet' per gli utenti che accedono dall'esterno sulla porta configurata.",
"INVITATIONS.Internet": "Internet",
"INVITATIONS.Local": "Rete Locale",
"INVITATIONS.Title": "Link di Invito al Gioco",

"ITEM.Create": "Nuovo Oggetto",
"ITEM.Delete": "Elimina Oggetto",
"ITEM.Search": "Ricerca Oggetti",
"ITEM.ViewArt": "Visualizza Immagine Oggetto",

"HUD.ToggleVis": "Attiva/Disattiva Visibilità",
"HUD.ToggleLock": "Attiva/Disattiva Stato Blocco",
"HUD.ToFront": "Porta in Primo Piano",
"HUD.ToBack": "Porta in Secondo Piano",
"HUD.TileOverhead": "Overhead Tile",
"HUD.TileUnderfoot": "Underfoot Tile",
"HUD.TilePlay": "Riproduci Tile Video",
"HUD.TilePause": "Metti in Pausa Tile Video",

"JOURNAL.Title": "Diario",
"JOURNAL.Search": "Ricerca Voci di Diario",
"JOURNAL.Create": "Nuova Voce",
"JOURNAL.ModeText": "Testo",
"JOURNAL.ModeImage": "Immagine",
"JOURNAL.ActionShow": "Mostra ai Giocatori",
"JOURNAL.ActionShowSuccess": "Il contenuto {mode} di {title} è stato mostrato ai giocatori {which}.",
"JOURNAL.Submit": "Salva Voce",
"JOURNAL.AnchorCenter": "Al Centro",
"JOURNAL.AnchorBottom": "In Basso",
"JOURNAL.AnchorTop": "In Alto",
"JOURNAL.AnchorLeft": "A Sinistra",
"JOURNAL.AnchorRight": "A Destra",

"LIGHT.AnimationType": "Tipo di Animazione Luce",
"LIGHT.AnimationSpeed": "Velocità Animazione",
"LIGHT.AnimationIntensity": "Intensità Animazione",
"LIGHT.AnimationTorch": "Torcia",
"LIGHT.AnimationPulse": "Pulsazione",
"LIGHT.AnimationChroma": "Cromatica",
"LIGHT.AnimationWave": "Onda Pulsante",
"LIGHT.AnimationFog": "Nebbia Vorticosa",
"LIGHT.AnimationSunburst": "Tempesta Solare",
"LIGHT.AnimationLightDome": "Cupola di Luce",
"LIGHT.AnimationEmanation": "Emanazione Misteriosa",
"LIGHT.AnimationEnergyField": "Campo di Energia",
"LIGHT.AnimationHexaDome": "Cupola Esagonale",
"LIGHT.AnimationGhostLight": "Luce Spettrale",
"LIGHT.AnimationRoilingMass": "Massa Torbida (Oscurità)",
"LIGHT.AnimationBlackHole": "Buco Nero (Oscurità)",
"LIGHT.ConfigTitle": "Configurazione Sorgente Luminosa",
"LIGHT.ConfigHint": "Configura la posizione, il raggio, l'angolo, il colore e l'animazione di questa sorgente di luce ambientale.",
"LIGHT.Create": "Crea Sorgente di Luce",
"LIGHT.DarknessRange": "Gamma Attivazione Oscurità",
"LIGHT.DarknessRangeHint": "È possibile specificare una gamma di livelli di oscurità durante la quale questa fonte di luce sarà visibile.",
"LIGHT.LightDim": "Raggio di Luce Fioca",
"LIGHT.LightBright": "Raggio di Luce Intensa",
"LIGHT.LightAngle": "Angolo di Emissione",
"LIGHT.LightColor": "Colore Luce",
"LIGHT.LightAlpha": "Intensità Colore",
"LIGHT.LightRotation": "Angolo di rotazione Luce",
"LIGHT.LightType": "Tipo Luce",
"LIGHT.TypeLocal": "Luce locale",
"LIGHT.TypeGlobal": "Luce Globale",
"LIGHT.TypeUniversal": "Luce Universale",
"LIGHT.Update": "Aggiorna Sorgente Luminosa",

"MACRO.Create": "Crea Macro",
"MACRO.Delete": "Elimina Macro",
"MACRO.DeleteWarning": "Questa macro verrà eliminata definitivamente per tutti gli utenti.",
"MACRO.Edit": "Modifica Macro",
"MACRO.Execute": "Esegui Macro",
"MACRO.Remove": "Rimuovi Macro",
"MACRO.Save": "Salva Macro",
"MACRO.Search": "Cerca Macro",

"MENU.Reload": "Ricarica Applicazione",
"MENU.Logout": "Disconnetti",
"MENU.Players": "Gestione Utenti",
"MENU.Setup": "Ritorna al Setup",

"MODMANAGE.Bugs": "Segnalazioni di Bug o Problemi",
"MODMANAGE.DeactivateAll": "Disattiva Tutti i Moduli",
"MODMANAGE.Readme": "Documentazione del Modulo",
"MODMANAGE.Title": "Gestione Moduli",
"MODMANAGE.Instructions": "Usa questa sezione per configurare quali moduli sono attivi nel mondo di gioco attuale. L'invio delle modifiche ai moduli attivi farà ricaricare la sessione corrente.",
"MODMANAGE.View": "Di seguito l’elenco dei moduli attivi in questo mondo.",
"MODMANAGE.None": "Nessun modulo disponibile in questo mondo. È possibile visualizzare, ma non si dispone dell'autorizzazione necessaria a modificare questo elenco.",
"MODMANAGE.Search": "Filtra Moduli",
"MODMANAGE.Submit": "Salva Impostazioni Modulo",
"MODMANAGE.Dependencies": "Dipendenze",
"MODMANAGE.DepEnable": "Questo modulo ha {numero} dipendenze inattive necessarie perché funzioni correttamente:",
"MODMANAGE.DepEnableCheck": "Abilitare il modulo e le sue dipendenze?",
"MODMANAGE.DepDisable": "Questo modulo aveva {numero} dipendenze che potrebbero non essere più necessarie:",
"MODMANAGE.DepDisableCheck": "Vuoi disabilitare anche queste?",
"MODMANAGE.DepNotInstalled": "La dipendenza {missing} non è installata!",
"MODMANAGE.DepMissing": "Hai abilitato il modulo {module}, ma le sue dipendenze {missing} non sono abilitate!",
"MODMANAGE.FilterAll": "Tutti i Moduli",
"MODMANAGE.FilterActive": "Moduli Attivi",
"MODMANAGE.FilterInactive": "Moduli Disabilitati",

"NOTE.AnchorPoint": "Punto di Ancoraggio del Testo",
"NOTE.ConfigTitle": "Configurazione Note della Mappa",
"NOTE.EntryIcon": "Icona",
"NOTE.FontSize": "Dimensione Font",
"NOTE.FontFamily": "Famiglia Font",
"NOTE.IconSize": "Dimensione Icona",
"NOTE.IconTint": "Colore Icona",
"NOTE.TextLabel": "Testo Etichetta",
"NOTE.TextColor": "Colore Testo",
"NOTE.Update": "Aggiorna Nota della Mappa",
"NOTE.WarningNoCreate": "Non disponi di autorizzazioni sufficienti per creare una nota per {nome}.",

"PLAYERS.Title": "Giocatori",
"PLAYERS.CharSelect": "Seleziona Personaggio",
"PLAYERS.CharSelected": "Personaggio Selezionato",
"PLAYERS.CharRelease": "Rilascia Personaggio",
"PLAYERS.ConfigTitle": "Configurazione Utente",
"PLAYERS.PlayerColor": "Colore Giocatore",
"PLAYERS.PlayerAvatar": "Avatar Giocatore",
"PLAYERS.PullToScene": "Passa Alla Scena",
"PLAYERS.SaveConfig": "Salva Configurazione",
"PLAYERS.ViewAvatar": "Visualizza Avatar Giocatore",
"PLAYERS.Kick": "Espelli Giocatore",
"PLAYERS.Ban": "Blocca Giocatore",
"PLAYERS.UnBan": "Sblocca Giocatore",

"PLAYLIST.Create": "Crea Playlist",
"PLAYLIST.Delete": "Elimina Playlist",
"PLAYLIST.Edit": "Modifica Playlist",
"PLAYLIST.Search": "Cerca Playlists",
"PLAYLIST.GlobalVolume": "Controlli Volume Globali",
"PLAYLIST.CurrentlyPlaying": "In Riproduzione",
"PLAYLIST.ModeDisabled": "Solo Soundboard",
"PLAYLIST.ModeSequential": "Playback Sequenziale",
"PLAYLIST.ModeShuffle": "Tracce In Ordine Casuale",
"PLAYLIST.ModeSimultaneous": "Playback Simultaneo",
"PLAYLIST.Play": "Avvia Playlist",
"PLAYLIST.Stop": "Arresta Playlist",
"PLAYLIST.Forward": "Suono Successivo",
"PLAYLIST.Backward": "Suono Precedente",
"PLAYLIST.VolPlaylist": "Playlists",
"PLAYLIST.VolAmbient": "Ambiente",
"PLAYLIST.VolInterface": "Interfaccia",
"PLAYLIST.Name": "Nome Playlist",
"PLAYLIST.Mode": "Modalità Playback",
"PLAYLIST.Fade": "Durata Dissolvenza (ms)",
"PLAYLIST.Description": "Descrizione Playlist",
"PLAYLIST.Update": "Aggiorna Playlist",
"PLAYLIST.SoundCreate": "Creata Suono",
"PLAYLIST.SoundEdit": "Modifica Audio",
"PLAYLIST.SoundDelete": "Elimina Audio",
"PLAYLIST.SoundLoop": "Ciclo Continuo",
"PLAYLIST.SoundName": "Name Traccia",
"PLAYLIST.SoundSrc": "Sorgente Audio",
"PLAYLIST.SoundDescription": "Descrizione Suono",
"PLAYLIST.SoundRepeat": "Ripeti",
"PLAYLIST.SoundStreaming": "Streaming di Grandi Dimensioni",
"PLAYLIST.SoundUpdate": "Aggiorna Traccia",
"PLAYLIST.SoundPlay": "Riproduci Audio",
"PLAYLIST.SoundPause": "Pausa Suono",
"PLAYLIST.SoundPreload": "Precarica Suono",
"PLAYLIST.SoundResume": "Riprendi Suono",
"PLAYLIST.SoundVolume": "Volume Audio",
"PLAYLIST.SoundStop": "Arresta Audio",
"PLAYLIST.BulkImport": "Importazione in Blocco",
"PLAYLIST.BulkImportWarning": "Nessun suono di playlist valido è stato importato dalla cartella \"{path}\" richiesta",

"SCENES.Accessibility" : "Accessibilità",
"SCENES.AccessibilityGM" : "Solo DM",
"SCENES.AccessibilityAll" : "Tutti i Giocatori",
"SCENES.Activate": "Attiva",
"SCENES.AudioPlaylist": "Playlist Audio",
"SCENES.AudioPlaylistHint": "Playlist che dovrebbe iniziare automaticamente a suonare quando questa scena è attivata",
"SCENES.BackgroundColor" : "Colore Sfondo",
"SCENES.BackgroundImage" : "Immagine di Sfondo",
"SCENES.BackgroundImageHint": "Configura l'immagine di sfondo e le dimensioni della mappa principale della scena.",
"SCENES.ForegroundImage" : "Immagine in Primo Piano",
"SCENES.ForegroundImageHint": "Immagine opzionale in primo piano che verrà disegnata sopra altri oggetti nella scena.",
"SCENES.BackgroundScale": "Scala Immagine di Sfondo",
"SCENES.Configure": "Configura",
"SCENES.ConfigTitle": "Configura Scena",
"SCENES.Darkness": "Livello di Oscurità",
"SCENES.DarknessHint": "Applicare una sovrapposizione che scurisce la scena e diminuisce le fonti di luce per simulare condizioni notturne o di scarsa illuminazione.",
"SCENES.Dimensions": "Dimensione Scena",
"SCENES.DimensionChangeTitle": "Modificare le dimensioni della scena?",
"SCENES.DimensionChangeWarning": "Stai cambiando le dimensioni di questa scena, se hai già posizionato degli oggetti, questa operazione potrebbe far sì che cambino posizione rispetto all'immagine di sfondo.",
"SCENES.FogExplore" : "Esplorazione Nebbia di Guerra",
"SCENES.FogExploreHint" : "Tieni traccia del progresso dell'esplorazione dei token in questa scena, rivelando la nebbia di guerra per le aree che sono state esplorate.",
"SCENES.GenerateThumb": "Rigenera la miniatura dell'immagine",
"SCENES.GlobalIllum" : "Raggio Visivo Illimitato",
"SCENES.GlobalIllumHint" : "Rivela tutte le aree per le quali i token controllati hanno una visuale diretta da osservare. Se disabilitato, la vista è limitata alle aree illuminate.",
"SCENES.GlobalLightThreshold": "Soglia di Limitazione Vista",
"SCENES.GlobalLightThresholdHint": "Disattiva automaticamente il Raggio Visivo Limitato quando il livello di oscurità supera un determinato valore di soglia.",
"SCENES.GridColor" : "Colore Griglia",
"SCENES.GridConfigTool": "Strumento di configurazione della griglia",
"SCENES.GridOpacity" : "Opacità Griglia",
"SCENES.GridType" : "Tipo Griglia",
"SCENES.GridGridless": "Disabilita Griglia",
"SCENES.GridSquare": "Quadrata",
"SCENES.GridHexOddR": "Righe Esagonali - Pari",
"SCENES.GridHexEvenR": "Righe Esagonali - Dispari",
"SCENES.GridHexOddQ": "Colonne Esagonali - Pari",
"SCENES.GridHexEvenQ": "Colonne Esagonali - Dispari",
"SCENES.GridSize" : "Dimensione Griglia",
"SCENES.GridPosition": "Posizione di Offset della Griglia",
"SCENES.GridScale": "Scala della Griglia",
"SCENES.GridDistance": "Distanza",
"SCENES.GridUnits": "Unità",
"SCENES.HeaderAmbience": "Ambiente e Atmosfera",
"SCENES.HeaderAmbienceHint": "Configura le integrazioni aggiuntive tra questa scena e voci di diario, playlist audio o effetti meteo.",
"SCENES.HeaderDetails": "Dettagli e Dimensioni",
"SCENES.HeaderDetailsHint": "Configura i dettagli di base per questa scena e le autorizzazioni che ne controllano la visibilità.",
"SCENES.HeaderGrid": "Configurazione Griglia",
"SCENES.HeaderGridHint" : "Configura le dimensioni della griglia utilizzate per misurare il movimento del token in questa scena.",
"SCENES.HeaderVision": "Visione e Illuminazione",
"SCENES.HeaderVisionHint": "Configura le impostazioni di visione, illuminazione e Fog of War da applicare a questa scena.",
"SCENES.InitialView": "Posizione Iniziale Vista",
"SCENES.InitialViewButton": "Cattura Vista Corrente",
"SCENES.InitialViewHint": "Imposta una posizione predefinita della camera che viene visualizzata la prima volta che viene visualizzata questa scena.",
"SCENES.Loading": "Caricamento {name}",
"SCENES.NavName" : "Nome Navigazione",
"SCENES.NavNameHint" : "Nome Scena alternativo che viene visualizzato ai giocatori nella barra di navigazione.",
"SCENES.Notes": "Annotazioni",
"SCENES.Padding" : "Percentuale Margini",
"SCENES.Pixels" : "Pixels",
"SCENES.Preload": "Precarica Scena",
"SCENES.SceneName": "Nome Scena",
"SCENES.View": "Visualizza Scena",
"SCENES.JournalNotes": "Voci Diario",
"SCENES.JournalNotesHint": "Voce di diario collegata contenente le note per il Game Master su questa scena.",
"SCENES.PlaylistSound": "Suono Playlist",
"SCENES.PlaylistSoundHint": "Puoi scegliere un suono specifico della playlist che dovrebbe essere riprodotto quando questa scena è attiva, altrimenti verrà riprodotta l'intera playlist.",
"SCENES.ShowNav" : "Mostra nella Navigazione",
"SCENES.ShiftBG": "Offset Sfondo",
"SCENES.ShiftHorizontal" : "Offset Orizz.",
"SCENES.ShiftVertical" : "Offset Verticale",
"SCENES.TokenVision" : "Vista Token",
"SCENES.TokenVisionHint" : "Limita la visibilità all'interno di questa scena in base ai token controllati e alla loro visione. Se disabilitato, l'intera scena sarà visibile.",
"SCENES.ToggleNav": "Attiva/Disattiva Navigazione",
"SCENES.Units" : "Unità",
"SCENES.WeatherEffect" : "Effetti Meteo",
"SCENES.WeatherEffectHint" : "Configura gli effetti atmosferici applicati alla scena.",

"SETTINGS.Configure": "Impostazioni",
"SETTINGS.Controls": "Controlli di Gioco",
"SETTINGS.Docs": "Mostra Documentazione",
"SETTINGS.Invite": "Link Di Invito",
"SETTINGS.ManageModules": "Gestisci Moduli",
"SETTINGS.ViewModules": "Visualizza i Moduli Attivi",
"SETTINGS.Title": "Impostazioni Di Gioco",
"SETTINGS.Update": "Aggiornamento Software",
"SETTINGS.Logout": "Disconnetti",
"SETTINGS.Players": "Gestione Utenti",
"SETTINGS.Reset": "Ripristinare le Impostazioni Predefinite",
"SETTINGS.Save": "Salvare le modifiche",
"SETTINGS.Setup": "Ritorna al Setup",
"SETTINGS.InfoHeader": "Informazioni Generali",
"SETTINGS.SettingsHeader": "Impostazioni di Gioco",
"SETTINGS.DocsHeader": "Documentazione di Aiuto",
"SETTINGS.AccessHeader": "Accesso Gioco",
"SETTINGS.Wiki": "Community Wiki",
"SETTINGS.AnimVisionN": "Animazione Visione Token",
"SETTINGS.AnimVisionL": "Animare la visione e l'illuminazione dei token durante le animazioni dei movimenti. Disattivare questa opzione migliorerà le prestazioni per le macchine di fascia bassa.",
"SETTINGS.AnimLightN": "Animazione Fonti Luce",
"SETTINGS.AnimLightL": "Consenti animazioni per le sorgenti luminose. Disattivare questa opzione migliorerà le prestazioni per le macchine di fascia bassa.",
"SETTINGS.ResScaleN": "Disabilita Ridimensionamento Risoluzione Pixel",
"SETTINGS.ResScaleL": "Disattiva il ridimensionamento automatico della risoluzione del canvas in base alla densità dei pixel del monitor. Ciò si tradurrà in una riduzione della qualità visiva ma in un miglioramento delle prestazioni dell'applicazione per i display ad alta densità.",
"SETTINGS.LangN": "Preferenze Lingua",
"SETTINGS.LangL": "Cambia la lingua utilizzata in Foundry Virtual Tabletop.",
"SETTINGS.LClickReleaseN": "Click tasto sinistro per rilasciare gli oggetti",
"SETTINGS.LClickReleaseL": "Se abilitato, un click sinistro su uno spazio vuoto dell'area di gioco rilascerà tutti gli oggetti attualmente controllati. Se disabilitato, gli oggetti vengono rilasciati selezionando uno spazio vuoto, facendo clic sull'oggetto tenendo premuto il tasto Maiusc o premendo il tasto Esc.",
"SETTINGS.NoCanvasN": "Disabilita Game Canvas",
"SETTINGS.NoCanvasL": "Il Game Canvas che fornisce una rappresentazione visiva del piano del tavolo virtuale può essere disabilitato. Ciò consente alle macchine di fascia bassa di utilizzare un sottoinsieme di funzionalità software.",
"SETTINGS.CBubN": "Abilita Chat Bubbles",
"SETTINGS.CBubL": "Configura se visualizzare le chat bubbles sopra i token per i messaggi di chat di tipo in-character e emote.",
"SETTINGS.CBubPN": "Focus al Token Che Sta Parlando",
"SETTINGS.CBubPL": "Configurare se eseguire automaticamente il focus della telecamera su un token che sta parlando quando viene visualizzata una chat bubble.",
"SETTINGS.MaxFPSN": "FPS Massimi",
"SETTINGS.MaxFPSL": "Limitare il framerate massimo in corrispondenza del quale Foundry eseguirà il rendering degli aggiornamenti sul canvas. La riduzione di questo valore può migliorare le prestazioni dell'applicazione su hardware meno potente.",
"SETTINGS.MipMapN": "Antialiasing sulle Texture durante lo Zoom",
"SETTINGS.MipMapL": "Calcola mipmap usando l'antialising per le textures sugli sprite a livelli di zoom inferiori. Questa impostazione è a livello client poiché utenti diversi potrebbero preferire stili di visualizzazione differenti.",
"SETTINGS.SoftSN": "Abilita Ombreggiatura Sfumata",
"SETTINGS.SoftSL": "Abilita l'ombreggiatura sfumata per una migliore illuminazione dinamica o disattivala per prestazioni migliori su macchine con hardware di fascia bassa.",
"SETTINGS.TabCore": "Impostazioni di Base",
"SETTINGS.TabModule": "Impostazioni Modulo",
"SETTINGS.TabSystem": "Impostazioni di Sistema",
"SETTINGS.TokenDragPreviewN": "Vista Token durante Trascinamento",
"SETTINGS.TokenDragPreviewL": "Se abilitato, la vista e l'illuminazione di un token vengono mostrate in anteprima in tempo reale durante il trascinamento tramite clic sinistro. Viene disabilitato di default perché potrebbe promuovere comportamenti di meta-gioco indesiderati.",
"SETTINGS.DefaultTokenN": "Configurazione Token Personalizzata",
"SETTINGS.DefaultTokenL": "Configura Impostazioni Personalizzate Token",
"SETTINGS.DefaultTokenH": "Configura i valori token predefiniti per gli personaggi appena creati.",

"SETUP.CoreVersion": "Versione Software Principale",
"SETUP.CoreVersionHint": "Se è disponibile un aggiornamento a Foundry Virtual Tabletop, è possibile applicarlo qui. Attualmente stai utilizzando la versione {coreVersion}.",
"SETUP.DefaultLanguage": "Lingua Predefinita",
"SETUP.DefaultLanguageHint": "È possibile scegliere una lingua predefinita per l'applicazione selezionando il modulo che fornisce i file di traduzione principali per quella lingua.",
"SETUP.SettingsHeader": "Configurazione Programma",
"SETUP.YouMustInstallASystem": "Devi installare un sistema di gioco prima di poter creare un nuovo mondo",
"SETUP.UpdateHeader": "Aggiornamento Programma",
"SETUP.UpdateAvailable": "L'aggiornamento {type} alla versione {version}  {channel} è ora disponibile!",
"SETUP.Configuration": "Configurazione",
"SETUP.ConfigurationWarning": "I seguenti attributi personalizzano il comportamento del server di Foundry. Apportare le modifiche con cautela. Sarà necessario riavviare il software affinché queste modifiche abbiano effetto",
"SETUP.MinifyFiles": "Ottimizza i File Statici",
"SETUP.MinifyFilesHint": "Riduci il traffico di rete esponendo file JavaScript e CSS statici minimizzati. L'abilitazione di questa impostazione è consigliata per la maggior parte degli utenti, ma gli sviluppatori di moduli potrebbero desiderare di disabilitarla.",
"SETUP.Modules": "Moduli Aggiuntivi",
"SETUP.Systems": "Sistemi di Gioco",
"SETUP.Title": "Configurazione e Setup",
"SETUP.Update": "Aggiorna Software",
"SETUP.SystemUpdate": "Aggiorna Sistema",
"SETUP.CoreUpdateInstructions": "È disponibile un aggiornamento del software principale, torna alla configurazione iniziale per applicarlo!",
"SETUP.SystemUpdateInstructions": "È disponibile un aggiornamento del sistema, torna alla configurazione iniziale per applicarlo!",
"SETUP.UpdateAll": "Aggiorna Tutto",
"SETUP.UpdateChannel": "Canale di Aggiornamento Software",
"SETUP.UpdateChannelHint": "Puoi scegliere un canale di aggiornamento per controllare i tipi di aggiornamenti che desideri ricevere per Foundry. Se non si dispone di un motivo specifico per modificarlo, si consiglia di utilizzare il canale di rilascio.",
"SETUP.UpdateCheck": "Verifica",
"SETUP.UpdateCheckFor": "Ricerca Aggiornamenti",
"SETUP.UpdateAlpha": "Alpha (Instabile)",
"SETUP.UpdateBeta": "Beta (Candidata al Rilascio)",
"SETUP.UpdateRelease": "Release (Stabile)",
"SETUP.UpdateKey": "Chiave di Aggiornamento",
"SETUP.ForceUpdateHint": "Fornire una chiave di accesso all'aggiornamento per procedere.",
"SETUP.Uninstall": "Disinstalla",
"SETUP.WorldCreate": "Nuovo Mondo di Gioco",
"SETUP.WorldDelete": "Elimina",
"SETUP.WorldEdit": "Modifica",
"SETUP.WorldLaunch": "Avvia",
"SETUP.Worlds": "Mondi di Gioco",
"SETUP.RequireUpdate": "Richiede Aggiornamento",
"SETUP.RequireSystem": "Richiede Aggiornamento di Sistema",
"SETUP.RequireDep": "Richiede Dipendenza",
"SETUP.RequireCore": "Richiede Aggiornamento Principale",
"SETUP.LockHint": "Il blocco di un Pacchetto ne impedisce la disinstallazione o l'aggiornamento",

"SETUP.ManifestUpdate": "E' disponibile una versione aggiornata al nuovo URL di installazione",
"SETUP.ManifestUpdateAvailable": "Una versione più recente di \"{package}\" è disponibile ad un URL di installazione diverso. Ciò accade quando la posizione di hosting del pacchetto o l'autore è cambiato.",
"SETUP.PriorManifestUrl": "URL manifest precedente (Versione {version})",
"SETUP.UpdatedManifestUrl": "URL manifest aggiornato (Versione {version})",
"SETUP.SwapToTheUpdatedManifest": "Passare al nuovo URL manifest? (consigliato)",

"SETUP.ConfigSave": "Salva Configurazione dell'Applicazione",
"SETUP.ConfigSaveWarning": "La modifica delle opzioni di configurazione causerà l'arresto del server e richiederà il riavvio manuale. Vuoi continuare?",
"SETUP.ConfigSaveRestart": "Il server Foundry Virtual Tabletop è stato chiuso per applicare le modifiche. È necessario riavviare manualmente.",

"SETUP.CurrentVersion": "Versione Corrente",
"SETUP.ForceUpdate": "Aggiornamento Forzato?",
"SETUP.CompatibilityUnknown": "Compatibilità Non Specificata",
"SETUP.CompatibilityRisk": "Rischio Incompatibilità",
"SETUP.CompatibilityRiskWithVersion": "Rischio di Compatibilità ({version})",
"SETUP.ManifestURL": "Manifest URL",
"SETUP.InstallHint": "È possibile installare un pacchetto fornendo un collegamento al suo JSON manifest.",
"SETUP.InstallModule": "Installa Modulo",
"SETUP.InstallSystem": "Installa Sistema",
"SETUP.InstallSuccess": "installato correttamente",
"SETUP.InstallFailure": "Installazione fallita. Per ulteriori dettagli, consultare i messaggi di errore nella console.",
"SETUP.InstallWorld": "Installa Mondo di Gioco",
"SETUP.UninstallSuccess": "disinstallato correttamente",
"SETUP.UninstallFailure": "Disinstallazione non riuscita. Per ulteriori dettagli, consultare i messaggi di errore nella console.",
"SETUP.UpdateSuccess": "aggiornato correttamente",
"SETUP.UpdateFailure": "Aggiornamento non riuscito. Per ulteriori dettagli, consultare i messaggi di errore nella console.",
"SETUP.PackagesLoading": "Caricamento dei Pacchetti Disponibili",
"SETUP.PackageFilter": "Filtra i Pacchetti",
"SETUP.PackageFilterHint": "Puoi filtrare i pacchetti disponibili, cercando per nome o titolo del pacchetto",
"SETUP.PackageCategories": "Categorie Pacchetti",
"SETUP.PackageInstalled": "Installato",
"SETUP.PackageNotOwned": "Non Installato",
"SETUP.PackageVisAll": "Tutti i Pacchetti",
"SETUP.PackageVisInst": "Solo Installati",
"SETUP.PackageVisUnin": "Solo Non Installati",

"SETUP.PackageHasDependencies": "Il pacchetto che hai installato ha {number} dipendenze che non sono ancora installate.",
"SETUP.PackageDependenciesTitle": "Installa le dipendenze del pacchetto",
"SETUP.PackageInstallDependencies": "Potrebbe non essere possibile utilizzare questo pacchetto se le sue dipendenze non sono presenti. Desideri installarle automaticamente?",
"SETUP.PackageDependenciesDecline": "Hai scelto di non installare i pacchetti di dipendenze richiesti per {title}. Dovrai installarli manualmente.",
"SETUP.PackageDependenciesSuccess": "{title} e {number} dipendenze sono stati installati con successo.",
"SETUP.PackageUpdateBlocked": "È disponibile un aggiornamento per {name} ma non può essere installato perché richiede la versione software di base {vreq} e attualmente stai utilizzando la versione {vcur}.",
"SETUP.PackageDeleteTitle": "Elimina {type}: {title}",
"SETUP.PackageDeleteConfirm": "Sei sicuro di voler eliminare il {type} <strong>{title}</strong>?",
"SETUP.WorldDeleteConfirm1": "<strong>Attenzione:</strong> Questo eliminerà definitivamente i tuoi contenuti del mondo e <strong>non sarà possibile</strong>tornare indietro. Sei sicuro di volerlo fare?</strong>.",
"SETUP.WorldDeleteConfirm2": "Digita il titolo esatto del tuo mondo <strong>{title}</strong> nella casella sottostante per procedere.",
"SETUP.PackageDeleteNoUndo": "Attenzione:</strong> Questa operazione non potrà essere annullata.",
"SETUP.PackageDeleteWorldConfirm": "È necessario inserire il nome esatto del mondo per confermare la richiesta di eliminazione.",
"SETUP.PackageStatusCheck": "Controlla Aggiornamento",
"SETUP.PackageStatusBlocked": "Bloccato",
"SETUP.PackageStatusUpdate": "Aggiorna",
"SETUP.PackageStatusCurrent": "Corrente",

"SETUP.UpdateDownloadingS": "Download Aggiornamento",
"SETUP.UpdateDownloadingC": "Download Completato",
"SETUP.UpdateExtractingS": "Estrazione Aggiornamento",
"SETUP.UpdateExtractingC": "Estrazione Completata",
"SETUP.UpdateCleaningS": "Pulizia Cartelle",
"SETUP.UpdateCleaningC": "Pulizia Completata",
"SETUP.UpdateInstallingS": "Installazione Aggiornamento",
"SETUP.UpdateInstallingC": "Installazione Completata",

"SETUP.UpdateWarning": "Per aggiornare Foundry Virtual Tabletop devi essere connesso a Internet e disporre di una licenza software valida",
"SETUP.UpdateWarningWillDisable": "Questo aggiornamento corrisponde a una nuova versione principale di Foundry Virtual Tabletop. La sua installazione richiederà la disabilitazione di alcuni moduli già installati che potrebbero non essere ancora compatibili.",
"SETUP.UpdateButtonDownload": "Scarica aggiornamento {version}",
"SETUP.UpdateInfoAvailable": "È disponibile un aggiornamento di Foundry Virtual Tabletop alla versione {version}!",
"SETUP.UpdateNoupdateMode": "Non sei autorizzato ad aggiornare questa istanza di Foundry Virtual Tabletop perché è stata avviata in modalità --update.",
"SETUP.UpdateNotAvailable": "Nessun aggiornamento software è attualmente disponibile sul canale di aggiornamento richiesto.",
"SETUP.UpdatedPackages": "Log Aggiornamento Pacchetto",
"SETUP.Package": "Pacchetto",
"SETUP.VersionChange": "Cambio di versione",

"SETUP.WorldMigrationRequiredTitle": "Richiesta Migrazione Dati del Mondo",
"SETUP.WorldMigrationRequired": "<p> All'avvio del mondo di gioco <strong> {world} </strong>, il suo modello dati verrà migrato dalla versione software precedente {oldVersion} alla versione attualmente installata {newVersion}. </p> <p> Come parte di questo processo, <strong> {nIncompatible} su {nModules} moduli installati </strong> che potrebbero non essere ancora compatibili con la nuova versione verranno automaticamente disabilitati. Puoi riattivarli manualmente se lo desideri. </p> <p> Controlla eventuali aggiornamenti disponibili per i tuoi sistemi e moduli di gioco e assicurati di eseguire periodicamente il backup dei dati critici del tuo mondo. Vuoi continuare? </p>",

"SETUP.AdminAccess": "Foundry Virtual Tabletop &bull; Accesso amministratore",
"SETUP.AdminKeyLabel": "Chiave di Accesso dell'Amministratore",
"SETUP.AdminKeyPrompt": "È necessario fornire la chiave di accesso amministratore per accedere alla configurazione dell'applicazione.",
"SETUP.AdminKeyHint": "È possibile assegnare una chiave di accesso speciale necessaria per accedere a questa schermata di configurazione.",
"SETUP.AdminLogout": "Disconnetti Amministratore",

"SETUP.AWSLabel": "Configurazione Percorso AWS",
"SETUP.AWSHint": "È possibile fornire un file di configurazione AWS per l'integrazione S3. Il percorso è assoluto o relativo alla sottodirectory Config dei dati utente.",
"SETUP.PortLabel": "Porta",
"SETUP.PortHint": "Puoi scegliere quale porta Foundry Virtual Tabletop utilizza per il traffico di connessione TCP e abilitare o disabilitare Universal Plug and Play (UPnP).",
"SETUP.UPNPLabel": "Abilitare UPnP?",
"SETUP.DataPathLabel": "Percorso Dati Utente",
"SETUP.DataPathHint": "Configura la posizione in cui sono archiviati i tuoi dati utente, inclusi mondi, sistemi e moduli.",
"SETUP.WorldLabel": "Mondo Predefinito",
"SETUP.WorldHint": "Puoi scegliere uno dei mondi disponibili da avviare automaticamente all'avvio del programma.",
"SETUP.SSLCertLabel": "Certificato SSL",
"SETUP.SSLKeyLabel": "Chiave Privata SSL",
"SETUP.SSLHint": "È possibile eseguire il server utilizzando la crittografia SSL (Secure Socket Layer) fornendo i percorsi ai certificati e alle chiavi. I percorsi sono assoluti o relativi alla sottodirectory Config nei dati utente.",

"PACKAGE.TagJavaScript": "JavaScript",
"PACKAGE.TagCSS": "CSS",
"PACKAGE.TagCompendium": "Compendium",
"PACKAGE.TagLocalization": "Localizzazione",
"PACKAGE.TagVersion": "Versione",
"PACKAGE.TagCoreVersion": "Versione Principale",

"JOIN.CurrentPlayers": "Giocatori Collegati",
"JOIN.HeaderJoin": "Partecipa alla Sessione di Gioco",
"JOIN.HeaderDetails": "Dettagli Gioco",
"JOIN.HeaderSetup": "Torna alla Configurazione",
"JOIN.HeaderWorld": "Descrizione Mondo",
"JOIN.NextSession": "Prossima Sessione",
"JOIN.SelectUser": "Seleziona Utente",
"JOIN.UserKey": "Chiave di Accesso Utente",
"JOIN.AuthAdmin": "Sei autenticato come utente amministratore del server.",
"JOIN.AdminKey": "Chiave di Accesso Amministratore",

"SHEETS.ThisSheet": "Questa Scheda",
"SHEETS.DefaultSheet": "Scheda Predefinita",
"SHEETS.EntitySheetHint": "Sovrascrivi quale scheda desideri utilizzare per questa specifica entità.",
"SHEETS.TypeSheetHint": "Imposta il tipo di scheda predefinita utilizzata per questo tipo di entità (Solo DM).",
"SHEETS.EntitySheetPrivate": "Non disponi delle autorizzazioni sufficienti per visualizzare questa scheda.",
"SHEETS.Save": "Salva Configurazione Scheda",

"SIDEBAR.CharArt": "Mostra Immagine Personaggio",
"SIDEBAR.CollapseToggle": "Comprimi o espandi",
"SIDEBAR.Delete": "Elimina",
"SIDEBAR.DeleteWarning": "Questo {tipo} verrà eliminato definitivamente e non potrà essere recuperato.",
"SIDEBAR.Duplicate": "Duplica",
"SIDEBAR.Export": "Esporta Dati",

"SOUND.ConfigTitle": "Configurazione del Suono Ambientale",
"SOUND.ConfigHint": "Configura il suono ambientale per riprodurre un file audio quando i token si muovono all'interno del suo raggio.",
"SOUND.Create": "Crea Suono Ambientale",
"SOUND.Update": "Aggiorna Souno Abientale",
"SOUND.SourcePath": "Percorso File",
"SOUND.PathPlaceholder": "percorso/a/audio.mp3",
"SOUND.Radius": "Raggio dell'Effetto",
"SOUND.Type": "Tipo Suono",
"SOUND.TypeLocal": "Suono Locale",
"SOUND.TypeGlobal": "Suono Globale",
"SOUND.Easing": "Riduzione del Volume",
"SOUND.EasingHint": "Imposta il livello del volume del suono quando i token si avvicinano all'origine.",
"SOUND.MaxVol": "Volume Massimo",
"SOUND.MaxVolHint": "Definisci il volume massimo del suono nel suo punto di origine (se viene usata la riduzione) oppure ovunque all'interno dell'area.",
"SOUND.New": "Nuovo Suono",
"SOUND.DarknessRange": "Gamma Attivazione Oscurità",
"SOUND.DarknessRangeHint": "Specificare una gamma di livelli di oscurità durante la quale questo suono ambientale sarà udibile.",

"FOLDER.Clear": "Cancella Cartella",
"FOLDER.Color": "Colore Cartella",
"FOLDER.Create": "Nuova Cartella",
"FOLDER.Collapse": "Comprimi Tutte le Cartelle",
"FOLDER.Delete": "Cancella tutto",
"FOLDER.DeleteWarning": "Questa cartella e il suo contenuto verranno eliminati definitivamente e non potranno essere recuperati.",
"FOLDER.Edit": "Modifica Cartella",
"FOLDER.Export": "Esporta in un Compendium",
"FOLDER.Name": "Nome Cartella",
"FOLDER.Remove": "Rimuovi Cartella",
"FOLDER.RemoveWarning": "Questa cartella verrà eliminata definitivamente e il suo contenuto verrà spostato nella cartella principale.",
"FOLDER.SortAlphabetical": "Alfabetico",
"FOLDER.SortManual": "Manuale",
"FOLDER.Update": "Aggiorna Cartella",
"FOLDER.ExportTitle": "Esporta Contenuto",
"FOLDER.ExportHint": "È possibile esportare le entità contenute in questa cartella in un Compendium sbloccato del tipo appropriato.",
"FOLDER.ExportDestination": "Compendium di Destinazione",
"FOLDER.ExportMerge": "Unisci per Nome?",
"FOLDER.ExportWarningNone": "Non sono disponibili compendium sbloccati per entità di tipo {type} in cui puoi esportare.",
"FOLDER.CreateTable": "Crea tabella",
"FOLDER.CreateTableConfirm": "Creare una nuova entità di tabella utilizzando il contenuto di questa cartella come insieme di risultati?",

"PERMISSION.NONE": "Nessuno",
"PERMISSION.LIMITED": "Limitato",
"PERMISSION.OBSERVER": "Osservatore",
"PERMISSION.OWNER": "Proprietario",
"PERMISSION.DEFAULT": "Predefinito",
"PERMISSION.NOCHANGE": "Nessuna Modifica",

"PERMISSION.AllPlayers": "Tutti i Giocatori",
"PERMISSION.Configure": "Configura Autorizzazioni",
"PERMISSION.ConfigureLabel": "Apri la Configurazione delle Autorizzazioni",
"PERMISSION.ConfigureHint": "Ottimizza le azioni consentite agli utenti per ciascun ruolo.",
"PERMISSION.Title": "Configurazione delle autorizzazioni",
"PERMISSION.Instructions": "Configura quale ruolo utente dispone dell'autorizzazione per eseguire l'azione. Nota che alcune azioni non possono essere disabilitate per gli utenti di tipo Dungeon Master. Alcune modifiche potrebbero non avere effetto fino a quando il gioco non viene ricaricato.",
"PERMISSION.HintFolder": "Configura l'accesso per tutte le entità all'interno di questa cartella. Le modifiche verranno applicate a tutte le Entità contenute, escluso il contenuto delle sottocartelle.",
"PERMISSION.HintEntity": "Configura l'accesso a questa specifica entità, consentendo a ciascun utente di essere assegnato un diverso livello di visibilità.",
"PERMISSION.Permission": "Autorizzazione",
"PERMISSION.Permissions": "Autorizzazioni Utente",
"PERMISSION.Reset": "Ripristina Valori di Default",
"PERMISSION.Submit": "Salva Configurazione",
"PERMISSION.BroadcastAudio": "Consenti Trasmissione Audio",
"PERMISSION.BroadcastAudioHint": "Consenti ai giocatori con questo ruolo di trasmettere audio quando utilizzano la chat A/V.",
"PERMISSION.BroadcastVideo": "Consenti Trasmissione Video",
"PERMISSION.BroadcastVideoHint": "Consenti ai giocatori con questo ruolo di trasmettere video quando utilizzano la chat A/V",
"PERMISSION.ActorCreate": "Crea Nuovi Personaggi",
"PERMISSION.ActorCreateHint": "Consenti ai giocatori con questo ruolo di creare nuovi personaggi nel Mondo di Gioco",
"PERMISSION.DrawingCreate": "Utilizza Strumenti di Disegno",
"PERMISSION.DrawingCreateHint": "Consenti ai giocatori con questo ruolo di utilizzare gli strumenti di disegno.",
"PERMISSION.ItemCreate": "Crea Nuovi Oggetti",
"PERMISSION.ItemCreateHint": "Consenti ai giocatori con questo ruolo di creare nuovi oggetti nel Mondo di Gioco",
"PERMISSION.FilesBrowse": "Usa il File Browser",
"PERMISSION.FilesBrowseHint": "Consenti ai giocatori con questo ruolo di navigare tra i file disponibili nel File Browser.",
"PERMISSION.FilesUpload": "Carica Nuovi Files",
"PERMISSION.FilesUploadHint": "Consenti ai giocatori con questo ruolo di caricare contenuti sul server utilizzando il File Browser.",
"PERMISSION.JournalCreate": "Crea Voci Diario",
"PERMISSION.JournalCreateHint": "Consenti ai giocatori con questo ruolo di creare nuove voci nella barra laterale Voci Diario.",
"PERMISSION.MacroScript": "Utilizza Script Macro",
"PERMISSION.MacroScriptHint": "Consenti ai giocatori con questo ruolo di utilizzare macro JavaScript con accesso alle API.",
"PERMISSION.MessageWhisper": "Invia Messaggi Privati",
"PERMISSION.MessageWhisperHint": "Consenti ai giocatori con questo ruolo di inviare messaggi privati che il Dungeon Master non può vedere.",
"PERMISSION.SettingsModify": "Modifica Impostazioni di Configurazione",
"PERMISSION.SettingsModifyHint": "Consenti ai giocatori con questo ruolo di modificare le impostazioni di gioco e abilitare o disabilitare i moduli.",
"PERMISSION.ShowCursor": "Visualizza Cursore del Mouse",
"PERMISSION.ShowCursorHint": "Mostra la posizione del cursore del mouse del giocatore che visualizza dove l'utente sta guardando.",
"PERMISSION.ShowRuler": "Visualizza Misurazione Righello",
"PERMISSION.ShowRulerHint": "Mostra la misurazione utilizzando lo strumento righello agli altri giocatori connessi.",
"PERMISSION.TemplateCreate": "Crea Modello di Misurazione",
"PERMISSION.TemplateCreateHint": "Consenti ai giocatori con questo ruolo di creare modelli per la misurazione dell'area di effetto.",
"PERMISSION.TokenCreate": "Crea Nuovi Tokens",
"PERMISSION.TokenCreateHint": "Consenti ai giocatori con questo ruolo di posizionare token per i personaggi di loro proprietà.",
"PERMISSION.TokenConfigure": "Configura Impostazioni Token",
"PERMISSION.TokenConfigureHint": "Consenti ai giocatori con questo ruolo di configurare le impostazioni per i token di loro proprietà.",
"PERMISSION.WallDoors": "Apri/Chiudi Porte",
"PERMISSION.WallDoorsHint": "Consenti ai giocatori con questo ruolo di interagire con le porte definite sul livello pareti.",

"SIDEBAR.Import": "Importa Dati",
"SIDEBAR.SceneCreate": "Nuova Scena",
"SIDEBAR.SceneSearch": "Ricerca Scene",
"SIDEBAR.TabChat": "Chat",
"SIDEBAR.TabCombat": "Combattimento",
"SIDEBAR.TabScenes": "Elenco Scene",
"SIDEBAR.TabActors": "Elenco Personaggi",
"SIDEBAR.TabItems": "Elenco Oggetti",
"SIDEBAR.TabJournal": "Voci Diario",
"SIDEBAR.TabPlaylists": "Playlist Audio",
"SIDEBAR.TabCompendium": "Compendium",
"SIDEBAR.TabSettings": "Impostazioni di Gioco",
"SIDEBAR.TabTables": "Tabelle Dinamiche",
"SIDEBAR.TokenArt": "Mostra Immagine Token",
"SIDEBAR.JumpPin": "Vai al Pin",

"TABLE.AnimateSetting": "Animare le Tabelle Dinamiche?",
"TABLE.AnimateSettingHint": "Configurare se visualizzare un'animazione in stile roulette quando si tira su una Tabella.",
"TABLE.Create": "Nuova Tabella",
"TABLE.Description": "Descrizione Tabella",
"TABLE.DisplayRoll": "Visualizza il tiro nella Chat?",
"TABLE.Formula": "Formula per il Tiro",
"TABLE.Search": "Cerca Tabelle",
"TABLE.SheetTitle": "Configurazione Tabella",
"TABLE.Normalize": "Normalizza i pesi dei risultati",
"TABLE.Replacement": "Mostra sostituzione?",
"TABLE.Reset": "Ripristina",
"TABLE.ResultCreate": "Aggiungi Risultato",
"TABLE.ResultType": "Tipo Risultato",
"TABLE.ResultDetails": "Dettaglio Risultato",
"TABLE.ResultDelete": "Elimina Risultato",
"TABLE.ResultWeight": "Peso",
"TABLE.ResultRange": "Intervallo",
"TABLE.Roll": "Tiro",
"TABLE.ToggleDrawn": "Attiva/disattiva stato visualizzato",
"TABLE.Update": "Aggiorna",

"TEMPLATE.ConeTypeSetting": "Modelli di Cono",
"TEMPLATE.ConeTypeSettingHint": "Scegli come definire l'area di effetto per i modelli di cono.",
"TEMPLATE.ConeTypeFlat": "Piatto",
"TEMPLATE.ConeTypeRound": "Arrotondato",

"TILE.ConfigTitle": "Configurazione Tile",
"TILE.BasicHeader": "Base",
"TILE.BasicHint": "Configura questo Tile che viene visualizzato sopra lo sfondo della scena.",
"TILE.OverheadHeader": "Overhead",
"TILE.OverheadHint": "Attributi aggiuntivi che si applicano se il tile è overhead in primo piano.",
"TILE.AnimationHeader": "Animazione",
"TILE.AnimationHint": "Attributi aggiuntivi che si applicano se il Tile utilizza una trama video animata.",
"TILE.Image": "Immagine Tile o Video",
"TILE.Opacity": "Opacità Tile",
"TILE.Tint": "Colore Tinta",
"TILE.Overhead": "E' Overhead?",
"TILE.OcclusionMode": "Tipo Occlusione",
"TILE.OcclusionModeNone": "Nessuna (Sempre Visibile)",
"TILE.OcclusionModeFade": "Dissolvenza (Tutto il Tile)",
"TILE.OcclusionModeRoof": "Tetto (Blocca Visione e Illuminazione)",
"TILE.OcclusionModeRadial": "Radiale (Attorno al Token)",
"TILE.OcclusionAlpha": "Occlusione Alpha",
"TILE.VideoLoop": "Loop Video",
"TILE.VideoAutoplay": "Autoplay Video",
"TILE.VideoVolume": "Volume Video",

"TOKEN.Assign": "Assegna Token",
"TOKEN.AssignWarn": "È necessario selezionare un token esistente da assegnare come nuova configurazione del prototipo.",
"TOKEN.AssignSuccess": "La configurazione del token prototipo è stata aggiornata per {nome}",
"TOKEN.BarAttributes": "Barra degli Attributi",
"TOKEN.BarValues": "Valori Singoli",
"TOKEN.CharActor": "Personaggio Rappresentato",
"TOKEN.CharDisposition": "Atteggiamento Token",
"TOKEN.CharInstructions": "Configura a quale personaggio è associato questo token.",
"TOKEN.CharLink": "Collega I Dati Del Personaggio",
"TOKEN.CharNameplate": "Etichetta",
"TOKEN.CharShowNameplate": "Mostra Etichetta",
"TOKEN.ImageAlts": "Alterna Token Del Personaggio",
"TOKEN.ImageInstructions": "Configura l'immagine del token, le dimensioni e la scala visualizzate.",
"TOKEN.ImagePath": "Percorso Immagine Token",
"TOKEN.MirrorX": "Rifletti in Orizzontale",
"TOKEN.MirrorY": "Rifletti in Verticale",
"TOKEN.Opacity": "Opacità Token",
"TOKEN.PositionInstructions": "Configura la posizione, l'orientamento e l'elevazione del token.",
"TOKEN.PositionLock": "Blocca la rotazione",
"TOKEN.RandomImg": "Immagini casuali",
"TOKEN.ResourceInstructions": "Configura le barre delle risorse tracciate per il token.",
"TOKEN.ResourceBar1A": "Attributo Barra 1",
"TOKEN.ResourceBar1D": "Dati Barra 1",
"TOKEN.ResourceBar2A": "Attributo Barra 2",
"TOKEN.ResourceBar2D": "Dati Barra 2",
"TOKEN.ResourceDisplay": "Visualizza Barre",
"TOKEN.Title": "Configurazione Token",
"TOKEN.TitlePrototype": "Configurazione Token Prototipo",
"TOKEN.TintColor": "Colore Tinta",
"TOKEN.Update": "Aggiorna Token",
"TOKEN.VisionInstructions": "Configura la capacità di vista e l'emissione luminosa di questo token.",
"TOKEN.VisionHas": "Abilita Vista",
"TOKEN.VisionBrightDist": "Luce Intensa",
"TOKEN.VisionDimDist": "Luce Fioca",
"TOKEN.VisionSightAngle": "Angolo di Vista",
"TOKEN.WarningNoActor": "Questo token fa riferimento a un personaggio che non esiste più nel mondo.",
"TOKEN.WarningNoVision": "Non possiedi alcun Token con visione in questa scena.",
"TOKEN.HOSTILE": "Ostile",
"TOKEN.NEUTRAL": "Neutrale",
"TOKEN.FRIENDLY": "Amichevole",
"TOKEN.DISPLAY_NONE": "Mai",
"TOKEN.DISPLAY_CONTROL": "Quando In Controllo",
"TOKEN.DISPLAY_OWNER_HOVER": "Mouse-over Solo Proprietario",
"TOKEN.DISPLAY_HOVER": "Mouse-over Per Tutti",
"TOKEN.DISPLAY_OWNER": "Sempre Per il Proprietario",
"TOKEN.DISPLAY_ALWAYS": "Sempre Per Tutti",

"USER.RoleNone": "Nessuno",
"USER.RolePlayer": "Giocatore",
"USER.RoleTrusted": "Giocatore Fidato",
"USER.RoleAssistant": "Assistente DM",
"USER.RoleGamemaster": "Dungeon Master",
"USERS.AccessKey": "Chiave di Accesso",
"USERS.Role": "Ruolo Utente",
"USERS.UserName": "Nome Utente",
"USERS.KeyShow": "Mostra Chiave di Accesso",
"USERS.Create": "Crea Utente Aggiuntivo",
"USERS.Delete": "Elimina Utente",
"USERS.Launch": "Avvia Sessione di Gioco",
"USERS.ManageTitle": "Gestione Utenti",
"USERS.UpdateSuccess": "Gli utenti del gioco sono stati aggiornati correttamente, ritorno al mondo di gioco.",
"USERS.NoGMError": "Devi avere almeno un utente Game Master nel tuo mondo.",
"USERS.DeleteWarning": "Questo utente verrà eliminato definitivamente dal mondo di gioco.",
"USERS.DeleteGMWarning": "Stai per eliminare un utente Game Master!",

"WALLS.Title": "Configurazioni Parete",
"WALLS.TitleMany": "Configurazione Parete [Multipla]",
"WALLS.Instructions": "Personalizza il modo in cui questo segmento di muro limita il movimento o i sensi",
"WALLS.Coordinates": "Coordinate Parete",
"WALLS.Movement": "Restrizioni al movimento",
"WALLS.Sight": "Limitazioni Vista",
"WALLS.Sound": "Limitazioni Suono",
"WALLS.Direction": "Direzione della Parete",
"WALLS.Door": "E' una Porta?",
"WALLS.DoorState": "Stato della Porta",
"WALLS.Submit": "Aggiorna Parete",

"WORLD.DetailTab": "Dettaglio Mondo",
"WORLD.DescTab": "Descrizione Mondo",

"WEBRTC.Title" : "Configurazione Audio/Video",
"WEBRTC.MenuLabel": "Configura Audio/Video",
"WEBRTC.MenuHint": "Configurare le impostazioni specifiche all'audio/video WebRTC integrato",
"WEBRTC.UnknownDevice" : "<Dispositivo Sconosciuto>",
"WEBRTC.VideoDevice" : "Dispositivo di Acquisizione Video",
"WEBRTC.VideoDeviceNotes" : "Seleziona l'eventuale dispositivo di acquisizione video che desideri utilizzare.",
"WEBRTC.AudioDevice" : "Dispositivo di Acquisizione Audio",
"WEBRTC.AudioDeviceNotes" : "Seleziona l'eventuale dispositivo di acquisizione audio che desideri utilizzare.",
"WEBRTC.AudioOutput" : "Dispositivo di Riproduzione Audio",
"WEBRTC.AudioOutputNotes" : "Seleziona il dispositivo di riproduzione audio che desideri utilizzare.",
"WEBRTC.DeviceUnavailableWarning": "Impossibile avviare la comunicazione audio / video perché uno dei dispositivi di input configurati non era disponibile.",
"WEBRTC.DisableVideoSource" : "Disabilita Trasmissione Video",
"WEBRTC.DisableAudioSource" : "Disabilita Trasmissione Audio",
"WEBRTC.DisableAudioOutput" : "Disabilita Uscita Audio",
"WEBRTC.DefaultSource" : "Dispositivo Predefinito",
"WEBRTC.UnavailableDevice" : "Dispositivo non disponibile (varrà usata l'impostazione predefinita)",
"WEBRTC.WebRTCServer" : "Seleziona Signalling Server",
"WEBRTC.WebRTCServerURL" : "URL Signalling Server",
"WEBRTC.FVTTSignalingServer" : "Foundry VTT",
"WEBRTC.CustomSignalingServer" : "Server Personalizzato",
"WEBRTC.WebRTCServerUsername" : "Username Signalling Server",
"WEBRTC.WebRTCServerPassword" : "Password Signalling Server",
"WEBRTC.WebRTCTurnServer" : "Configurazione Relay Server",
"WEBRTC.TURNServerProvisioned" : "Fornito dal Signalling Server",
"WEBRTC.CustomTURNServer" : "Relay Server Personalizzato",
"WEBRTC.WebRTCTURNURL" : "URL Relay Server",
"WEBRTC.WebRTCTurnUsername" : "Username Relay Server",
"WEBRTC.WebRTCTurnPassword" : "Password Relay Server",
"WEBRTC.GeneralTab" : "Generale",
"WEBRTC.DevicesTab" : "Dispositivi",
"WEBRTC.ServerTab" : "Server",
"WEBRTC.GeneralTabNotGM" : "Le impostazioni generali di conferenza audio/video possono essere modificate solo dal GM",
"WEBRTC.AVMode" : "Modalità Conferenza Audio/Video",
"WEBRTC.AVModeNotes" : "Solo un utente Game Master può modificare questa impostazione, il che richiederà il ricaricamento di Foundry VTT.",
"WEBRTC.ModeDisabled" : "Disabilitato",
"WEBRTC.ModeAudioOnly" : "Solo Audio",
"WEBRTC.ModeVideoOnly" : "Solo Video",
"WEBRTC.ModeAudioVideo" : "Audio/Video Abilitati",
"WEBRTC.TooltipToggleVideo" : "Attiva/Disattiva Video",
"WEBRTC.TooltipConfigure" : "Configura Impostazioni",
"WEBRTC.TooltipDock" : "Invia al Dock",
"WEBRTC.TooltipPopout" : "Pop out",
"WEBRTC.PTTKey": "Tasto Push-to-Talk/Mute",
"WEBRTC.PTTKeyNotes": "Assegna un tasto che, in modalità PTT, abilita la voce mentre è in attesa. Se non in modalità PTT, lo stesso tasto la disattiva mentre viene premuto.",
"WEBRTC.VoiceMode": "Modalità di Trasmissione Vocale",
"WEBRTC.VoiceModeNotes": "Scegli la modalità di trasmissione della tua voce nelle chiamate AV.",
"WEBRTC.VoiceModeAlways": "Sempre Abilitata",
"WEBRTC.VoiceModeActivity": "Attivazione Voce",
"WEBRTC.VoiceModePtt": "Push-to-Talk",

"WEBRTC.TooltipAllowUserVideo" : "Consenti Video Utente",
"WEBRTC.TooltipBlockUserVideo" : "Blocca Video Utente",
"WEBRTC.TooltipAllowUserAudio" : "Consenti Audio Utente",
"WEBRTC.TooltipBlockUserAudio" : "Blocca Audio Utente",
"WEBRTC.TooltipEnableMyVideo" : "Abilita Video",
"WEBRTC.TooltipDisableMyVideo" : "Disabilita Video",
"WEBRTC.TooltipEnableMyAudio" : "Abilita Audio",
"WEBRTC.TooltipDisableMyAudio" : "Disattiva Audio",
"WEBRTC.TooltipMutePeers" : "Disattiva l'Audio degli Altri",
"WEBRTC.TooltipUnmutePeers" : "Attiva l'Audio degli Altri",
"WEBRTC.TooltipShowPlayers" : "Mostra l'Elenco dei Giocatori",
"WEBRTC.TooltipHidePlayers" : "Nascondi l'Elenco dei Giocatori",

"WEBRTC.TooltipChangeSize" : "Ruota Dimensione Video",
"WEBRTC.CaptureWarningVideo" : "Impossibile acquisire dai tuoi dispositivi audio; Condivisione solo di video",
"WEBRTC.CaptureWarningAudio" : "Impossibile acquisire dai tuoi dispositivi video; Condivisione solo dell'audio",
"WEBRTC.CaptureErrorAudioVideo" : "Impossibile acquisire dai tuoi dispositivi audio e video",
"WEBRTC.CaptureErrorVideo" : "Impossibile acquisire dai tuoi dispositivi video",
"WEBRTC.CaptureErrorAudio" : "Impossibile acquisire dai tuoi dispositivi audio",
"WEBRTC.ConnectError" : "Errore di connessione Audio/Video dal Signalling Server",
"WEBRTC.ConnectionLostWarning" : "Connessione persa al Signalling server audio/video. Prova a ristabilire la connessione.",
"WEBRTC.GenericError" : "Errore WebRTC : ",
"WEBRTC.NoSSLError": "Non è possibile utilizzare chiamate audio/video a meno che il server VTT Foundry non stia utilizzando certificati SSL. Consultare la documentazione online per maggiori informazioni.",
"WEBRTC.WarningCannotEnableVideo": "Non è possibile abilitare la videocamera perché non si dispone dell'autorizzazione per trasmettere il feed video.",
"WEBRTC.WarningCannotEnableAudio": "Non puoi abilitare il microfono perché non sei autorizzato a trasmettere il tuo feed audio.",

"WORLD.Title": "Titolo Mondo",
"WORLD.DataPath": "Percorso Dati",
"WORLD.GameSystem": "Sistema di Gioco",
"WORLD.BackgroundImage": "Immagine Background",
"WORLD.NextSession": "Prossima Sessione",
"WORLD.ResetModules": "Reimposta Moduli Attivi",
"WORLD.ResetKeys": "Reimposta Chiavi Accesso utente",
"WORLD.LaunchSafeMode": "Avvia in Configurazione Sicura",
"WORLD.SafeModeHint": "Disabilita tutti i moduli e le scene attive e interrompe la riproduzione dell'audio",
"WORLD.Description": "Descrizione Mondo"
}
